<svg width="100" height="118" viewBox="0 0 118 100" fill="none" xmlns="http://www.w3.org/2000/svg">
<circle cx="50" cy="50" r="50" fill="#FEFFFF" fill-opacity="0.3"/>
<g clip-path="url(#clip0_4_66)">
<path d="M38.0825 91C51.9352 91 63.1651 86.355 63.1651 80.625C63.1651 74.895 51.9352 70.25 38.0825 70.25C24.2298 70.25 13 74.895 13 80.625C13 86.355 24.2298 91 38.0825 91Z" fill="#D1EBFF"/>
<path d="M50.5019 12.5348C58.5626 7.91628 65.8913 7.21345 71.4026 9.8072L75.8368 12.3006V12.3257C70.3424 9.79047 63.0474 10.5017 55.0371 15.1035C37.9396 24.9179 24.0815 48.6884 24.0815 68.1917C24.0815 77.6547 27.3462 84.3817 32.6639 87.6699L29.6937 85.9463C23.4673 83.0597 19.5547 75.9897 19.5547 65.623C19.5547 46.1197 33.4128 22.3492 50.5019 12.5348Z" fill="#D1EBFF"/>
<path d="M32.6638 87.9795C32.6133 87.9795 32.5544 87.9628 32.504 87.9377L29.5338 86.2141C22.996 83.1937 19.2349 75.6801 19.2349 65.6231C19.2349 46.0528 33.1939 22.115 50.3419 12.2671C55.281 9.43911 60.0014 8 64.3935 8C66.9851 8 69.3915 8.51038 71.5371 9.52278L75.9882 12.0329C76.0892 12.0914 76.1481 12.2002 76.1481 12.309C76.1481 12.4177 76.0892 12.5265 75.9966 12.5851C75.9041 12.6436 75.7947 12.6604 75.6937 12.6185C73.6575 11.6731 71.3773 11.1962 68.9203 11.1962C64.646 11.1962 60.0266 12.6018 55.1885 15.3796C38.2087 25.1271 24.4011 48.8139 24.4011 68.1917C24.4011 77.2197 27.3966 84.0387 32.8321 87.4022C32.9751 87.4943 33.0256 87.6867 32.9331 87.8289C32.8742 87.9293 32.7732 87.9795 32.6638 87.9795ZM64.3935 8.62752C60.1192 8.62752 55.4998 10.0332 50.6617 12.811C33.6819 22.5585 19.8659 46.2453 19.8659 65.6231C19.8659 75.2534 23.3662 82.4657 29.4833 85.4946C25.7642 81.6207 23.7617 75.6299 23.7617 68.1834C23.7617 48.6131 37.7123 24.6753 54.8687 14.8274C59.7994 11.9994 64.5282 10.5603 68.9203 10.5603C70.2918 10.5603 71.6044 10.7025 72.8582 10.987L71.2426 10.075C69.198 9.1128 66.8841 8.61915 64.3851 8.61915L64.3935 8.62752Z" fill="#03336E"/>
<path d="M76.7756 63.067C88.938 42.3785 89.0605 19.947 77.0492 12.9648C65.0379 5.9825 45.4412 17.0935 33.2788 37.782C21.1164 58.4704 20.9939 80.9019 33.0052 87.8842C45.0165 94.8665 64.6132 83.7554 76.7756 63.067Z" fill="white"/>
<path d="M41.1452 90.272C30.4256 90.272 23.77 81.8046 23.77 68.1833C23.77 48.613 37.7207 24.6752 54.8771 14.8273C59.8078 11.9993 64.5365 10.5602 68.9287 10.5602C79.6483 10.5602 86.3039 19.0275 86.3039 32.6489C86.3039 52.2192 72.3532 76.157 55.1968 86.0048C50.2661 88.8329 45.5374 90.272 41.1452 90.272ZM68.9203 11.1961C64.6459 11.1961 60.0265 12.6017 55.1884 15.3795C38.2087 25.127 24.4011 48.8138 24.4011 68.1916C24.4011 81.4281 30.8127 89.6528 41.1452 89.6528C45.4196 89.6528 50.039 88.2472 54.8771 85.4694C71.8568 75.7219 85.6644 52.0351 85.6644 32.6573C85.6644 19.4208 79.2528 11.1961 68.9203 11.1961Z" fill="#03336E"/>
<path d="M72.6351 60.6601C82.4804 43.9131 82.5783 25.7544 72.8537 20.1014C63.1291 14.4484 47.2646 23.4419 37.4193 40.1889C27.574 56.9359 27.4761 75.0947 37.2007 80.7477C46.9253 86.4007 62.7898 77.4072 72.6351 60.6601Z" fill="#D1EBFF"/>
<path d="M43.7872 82.7418C35.0786 82.7418 29.6599 75.8642 29.6599 64.8031C29.6599 48.9394 40.9685 29.5448 54.8687 21.5628C58.8738 19.2619 62.7106 18.0989 66.2698 18.0989C74.9785 18.0989 80.3972 24.9765 80.3972 36.0376C80.3972 51.9013 69.0886 71.2959 55.1884 79.2779C51.1833 81.5788 47.3464 82.7418 43.7872 82.7418ZM66.2782 18.7264C62.8284 18.7264 59.0926 19.8643 55.1884 22.1066C41.4565 29.9883 30.291 49.1402 30.291 64.8031C30.291 75.4793 35.4573 82.1143 43.7872 82.1143C47.237 82.1143 50.9645 80.9764 54.8771 78.7341C68.6005 70.8524 79.7745 51.7005 79.7745 36.0376C79.7745 25.3614 74.6082 18.7264 66.2782 18.7264Z" fill="#03336E"/>
<path d="M69.2936 58.7178C77.2745 45.1422 77.3569 30.4241 69.4777 25.8439C61.5986 21.2637 48.7415 28.5558 40.7607 42.1314C32.7798 55.7069 32.6974 70.425 40.5765 75.0052C48.4557 79.5855 61.3128 72.2933 69.2936 58.7178Z" fill="white"/>
<path d="M45.9161 76.6758C38.8145 76.6758 34.4055 71.0783 34.4055 62.0755C34.4055 49.1988 43.5853 33.4522 54.8687 26.9762C58.125 25.1104 61.2382 24.1649 64.1411 24.1649C71.2426 24.1649 75.6516 29.7624 75.6516 38.7652C75.6516 51.6419 66.4718 67.3885 55.1884 73.8645C51.9322 75.7303 48.8189 76.6758 45.9161 76.6758ZM64.1495 24.7924C61.3644 24.7924 58.3521 25.7128 55.1968 27.5201C44.0902 33.8957 35.045 49.3996 35.045 62.0755C35.045 70.6934 39.21 76.0483 45.9245 76.0483C48.7095 76.0483 51.7218 75.1279 54.8771 73.3207C65.9838 66.9451 75.029 51.4411 75.029 38.7652C75.029 30.1473 70.864 24.7924 64.1495 24.7924Z" fill="#03336E"/>
<path d="M66.1483 56.8893C72.3655 46.3138 72.4265 34.8461 66.2844 31.2757C60.1424 27.7053 50.1232 33.3841 43.906 43.9597C37.6887 54.5353 37.6278 66.0029 43.7698 69.5733C49.9119 73.1438 59.9311 67.4649 66.1483 56.8893Z" fill="#D1EBFF"/>
<path d="M47.9269 70.9528C42.3568 70.9528 38.8901 66.5685 38.8901 59.5068C38.8901 49.4498 46.059 37.1504 54.8686 32.0967C57.4181 30.6325 59.8582 29.8962 62.13 29.8962C67.7001 29.8962 71.1668 34.2805 71.1668 41.3422C71.1668 51.3993 63.9979 63.6987 55.1883 68.7523C52.6388 70.2165 50.1987 70.9528 47.9269 70.9528ZM62.1384 30.5154C59.976 30.5154 57.6452 31.2266 55.1967 32.6322C46.5554 37.5938 39.5296 49.6422 39.5296 59.4985C39.5296 66.1669 42.7522 70.3169 47.9353 70.3169C50.0978 70.3169 52.4285 69.6057 54.877 68.2001C63.5183 63.2385 70.5441 51.1901 70.5441 41.3338C70.5441 34.657 67.3215 30.5154 62.1384 30.5154Z" fill="#03336E"/>
<path d="M63.1775 55.1623C67.7367 47.4072 67.7836 38.9992 63.2824 36.3826C58.7812 33.766 51.4363 37.9316 46.8771 45.6868C42.318 53.442 42.271 61.8499 46.7723 64.4665C51.2735 67.0831 58.6184 62.9175 63.1775 55.1623Z" fill="white"/>
<path d="M49.8204 65.5561C45.7396 65.5561 43.106 62.2261 43.106 57.0804C43.106 49.684 48.3816 40.631 54.8689 36.9077C56.7453 35.8284 58.5543 35.2845 60.2371 35.2845C64.3096 35.2845 66.9516 38.6146 66.9516 43.7603C66.9516 51.165 61.676 60.2096 55.1887 63.9329C53.3123 65.0123 51.5033 65.5561 49.8204 65.5561ZM60.2371 35.9037C58.6721 35.9037 56.9725 36.4224 55.1887 37.4432C48.8781 41.0661 43.7454 49.8765 43.7454 57.072C43.7454 61.9165 46.0761 64.9202 49.8289 64.9202C51.3939 64.9202 53.0935 64.4015 54.8773 63.3807C61.1879 59.7578 66.3206 50.9474 66.3206 43.7519C66.3206 38.9074 63.9898 35.9037 60.2371 35.9037Z" fill="#03336E"/>
<path d="M59.5672 53.0637C62.1047 48.7473 62.1292 44.0666 59.6218 42.609C57.1145 41.1514 53.0248 43.469 50.4872 47.7854C47.9497 52.1018 47.9252 56.7825 50.4326 58.2401C52.9399 59.6976 57.0297 57.3801 59.5672 53.0637Z" fill="#0FBAB8"/>
<path d="M52.1342 58.9797C49.7782 58.9797 48.2637 57.0721 48.2637 54.1269C48.2637 49.9685 51.2339 44.8731 54.8772 42.7813C55.9458 42.1705 56.9723 41.861 57.9315 41.861C60.2875 41.861 61.802 43.7686 61.802 46.7138C61.802 50.8722 58.8318 55.9676 55.1885 58.0594C54.1199 58.6701 53.0934 58.9797 52.1342 58.9797ZM57.9315 42.4801C57.0817 42.4801 56.1645 42.7646 55.1885 43.3168C51.7135 45.3081 48.8863 50.161 48.8863 54.1185C48.8863 56.729 50.1316 58.3438 52.1258 58.3438C52.9588 58.3438 53.9096 58.051 54.8688 57.5071C58.3438 55.5158 61.171 50.6713 61.171 46.7054C61.171 44.0949 59.9257 42.4801 57.9315 42.4801Z" fill="#03336E"/>
<path d="M112.901 84.1391L116.225 83.6957C118.042 83.453 118.219 80.9011 116.443 80.4158L97.7893 75.3455L112.893 84.1391H112.901Z" fill="#0FBAB8"/>
<path d="M112.901 84.457C112.842 84.457 112.792 84.4403 112.741 84.4152L97.6379 75.6216C97.5033 75.5463 97.4444 75.3706 97.5033 75.2283C97.5622 75.0861 97.722 75.0024 97.8735 75.0442L116.528 80.1146C117.613 80.4074 118.051 81.3613 118 82.1645C117.95 82.9677 117.394 83.8546 116.267 84.0052L112.943 84.4487C112.943 84.4487 112.918 84.4487 112.901 84.4487V84.457ZM100.019 76.2825L112.968 83.8212L116.191 83.3861C117.007 83.2773 117.344 82.6414 117.377 82.131C117.411 81.6207 117.167 80.9429 116.376 80.7254L100.028 76.2825H100.019Z" fill="#03336E"/>
<path d="M115.316 83.9049C115.316 83.9049 115.316 83.863 115.266 83.8379C115.266 83.8379 67.1031 55.7501 61.8358 52.7213C58.142 50.5961 55.5757 50.3451 55.5757 50.3451C55.5421 50.3284 55.4916 50.3284 55.4411 50.3618C55.3317 50.4204 55.2476 50.571 55.2476 50.6965C55.2476 50.7551 55.2644 50.7969 55.298 50.822C55.298 50.822 56.8042 52.8552 60.4896 54.9804C65.7484 58.0092 113.928 86.0886 113.928 86.0886C113.945 86.0886 113.945 86.0886 113.953 86.0886C114.121 86.1891 114.357 86.1807 114.618 86.0301C115.131 85.7372 115.543 85.026 115.543 84.4404C115.543 84.1894 115.451 84.0136 115.324 83.9049H115.316Z" fill="white"/>
<path d="M114.205 86.4651C114.071 86.4651 113.953 86.44 113.844 86.3814C113.818 86.3814 113.801 86.3647 113.776 86.3563C113.288 86.0719 65.5295 58.2434 60.3296 55.2481C56.8462 53.24 55.2895 51.324 55.0708 51.0395C54.9782 50.9558 54.9277 50.8387 54.9277 50.6965C54.9277 50.4622 55.0708 50.2112 55.2811 50.094C55.3821 50.0355 55.4747 50.002 55.6261 50.0438C55.9122 50.0773 58.4196 50.4036 61.9956 52.4535C67.204 55.4489 114.946 83.294 115.425 83.5702C115.51 83.6204 115.56 83.6706 115.585 83.7291C115.72 83.863 115.846 84.0889 115.846 84.4403C115.846 85.1348 115.366 85.9464 114.761 86.2978C114.567 86.4065 114.374 86.4651 114.188 86.4651H114.205ZM114.045 85.7874C114.138 85.8376 114.163 85.8376 114.197 85.8376C114.247 85.8376 114.332 85.8209 114.449 85.7539C114.862 85.5113 115.215 84.9089 115.215 84.4403C115.215 84.3064 115.181 84.206 115.114 84.1475C115.089 84.1307 115.072 84.1056 115.055 84.0805C113.255 83.0263 66.8085 55.9425 61.6759 52.989C58.3355 51.073 55.9122 50.7048 55.5756 50.663C55.7944 50.9391 57.3342 52.7966 60.6409 54.7042C65.7736 57.6661 112.388 84.8252 114.037 85.7874H114.045Z" fill="#03336E"/>
<path d="M113.213 82.8758L97.781 74.0403L109.822 73.0613C114.332 72.6932 117.134 77.8305 114.365 81.3864L113.204 82.8758H113.213Z" fill="#0FBAB8"/>
<path d="M113.212 83.1937C113.162 83.1937 113.103 83.177 113.053 83.1519L97.6211 74.3164C97.5033 74.2494 97.4444 74.1072 97.4696 73.9733C97.5033 73.8395 97.6127 73.7391 97.7473 73.7307L109.788 72.7518C112.11 72.5593 114.189 73.7725 115.198 75.8141C116.149 77.7301 115.922 79.8888 114.609 81.5872L113.448 83.0766C113.389 83.1519 113.297 83.2021 113.196 83.2021L113.212 83.1937ZM98.8159 74.2745L113.128 82.4741L114.121 81.2024C115.291 79.6963 115.484 77.7887 114.643 76.0902C113.751 74.2829 111.9 73.2036 109.847 73.3793L98.8159 74.2745Z" fill="#03336E"/>
<path d="M112.236 84.5323L111.858 85.8877C110.848 89.5023 106.01 90.2135 103.99 87.0508L96.8132 75.8307L112.245 84.5323H112.236Z" fill="#0FBAB8"/>
<path d="M107.642 89.3684C106.027 89.3684 104.596 88.5819 103.721 87.2181L96.544 75.998C96.4683 75.8725 96.4851 75.7219 96.5777 75.6131C96.6787 75.5127 96.8385 75.4876 96.9647 75.5546L112.396 84.2562C112.522 84.3231 112.581 84.4737 112.548 84.616L112.169 85.9714C111.597 88.0046 109.788 89.3768 107.651 89.3768L107.642 89.3684ZM97.7557 76.7259L104.251 86.8834C105.009 88.0631 106.246 88.7409 107.642 88.7409C109.182 88.7409 110.983 87.8289 111.555 85.7957L111.866 84.6745L97.7557 76.7176V76.7259Z" fill="#03336E"/>
</g>
<defs>
<clipPath id="clip0_4_66">
<rect width="105" height="83" fill="white" transform="translate(13 8)"/>
</clipPath>
</defs>
</svg>
