<svg width="119" height="105" viewBox="0 0 130 118" fill="none" xmlns="http://www.w3.org/2000/svg">
<g clip-path="url(#clip0_1_5250)">
<path d="M129.267 12.8702L31.564 46.4647L37.4629 75.5767L129.267 12.8702Z" fill="white"/>
<path d="M37.4097 76.0863C37.4097 76.0863 37.3123 76.0761 37.272 76.058C37.1107 75.9855 36.9844 75.847 36.9599 75.6774L31.0596 46.5792C31.0019 46.3226 31.1545 46.074 31.4026 45.9885L129.093 12.3787C129.341 12.2932 129.611 12.4049 129.727 12.6397C129.843 12.8746 129.771 13.1594 129.559 13.3044L37.7706 75.9986C37.6646 76.0711 37.535 76.0993 37.4236 76.0877L37.4097 76.0863ZM32.1616 46.8055L37.8221 74.6954L125.779 14.6086L32.1741 46.8207L32.1616 46.8055Z" fill="#03336E"/>
<path d="M129.266 12.8702L31.5638 46.4648L15.9338 45.9069L7.63873 36.536L129.266 12.8702Z" fill="white"/>
<path d="M15.8807 46.4165C15.7554 46.4035 15.622 46.3339 15.5471 46.2425L7.23662 36.884C7.11036 36.7455 7.07479 36.5469 7.13521 36.3722C7.19564 36.1975 7.35062 36.0606 7.53587 36.0381L129.165 12.3585C129.438 12.3035 129.702 12.4702 129.774 12.7283C129.845 12.9863 129.704 13.2639 129.442 13.348L31.7377 46.9563C31.7377 46.9563 31.6081 46.9846 31.5525 46.9788L15.9239 46.4071L15.8821 46.4027L15.8807 46.4165ZM8.63038 36.8762L16.1832 45.404L31.4903 45.956L122.044 14.804L8.63038 36.8762Z" fill="#03336E"/>
<path d="M129.267 12.8702L48.1921 58.5004L37.4629 75.5767L129.267 12.8702Z" fill="#D1EBFF"/>
<path d="M37.4098 76.0863C37.2985 76.0747 37.1914 76.0218 37.1012 75.9428C36.9221 75.7709 36.8798 75.502 37.0141 75.2933L47.7294 58.2155C47.7798 58.1372 47.8412 58.0879 47.9166 58.0401L129.005 12.4113C129.245 12.2693 129.559 12.3578 129.705 12.5818C129.849 12.8195 129.788 13.1334 129.561 13.2906L37.7707 75.9987C37.6647 76.0711 37.5351 76.0994 37.4237 76.0878L37.4098 76.0863ZM48.5614 58.873L39.2469 73.7164L119.052 19.2112L48.5599 58.8868L48.5614 58.873Z" fill="#03336E"/>
<path d="M129.267 12.8701L48.192 58.5003L58.6304 72.5495L72.5339 79.2754L129.267 12.8701Z" fill="white"/>
<path d="M72.4807 79.785C72.4807 79.785 72.3554 79.7719 72.3026 79.7386L58.3992 73.0126C58.3185 72.9764 58.2547 72.9141 58.2047 72.8532L47.7678 58.7902C47.6819 58.6699 47.642 58.5126 47.6703 58.3763C47.7 58.2263 47.7964 58.1111 47.9178 58.0263L129.005 12.4113C129.229 12.2816 129.505 12.3381 129.667 12.536C129.829 12.7339 129.829 13.0123 129.668 13.2043L72.9351 79.6097C72.8219 79.751 72.6477 79.8024 72.4807 79.785ZM58.9686 72.1393L72.3897 78.634L126.959 14.7595L48.9628 58.6642L58.9811 72.1545L58.9686 72.1393Z" fill="#03336E"/>
<path d="M28.4813 97.3459L45.1109 109.368L90.7893 80.4274L28.4813 97.3459Z" fill="#D1EBFF"/>
</g>
<defs>
<clipPath id="clip0_1_5250">
<rect width="119.581" height="105.231" fill="white" transform="translate(10.9138) rotate(5.95298)"/>
</clipPath>
</defs>
</svg>
