<svg width="25" height="20" viewBox="0 0 25 20" fill="none" xmlns="http://www.w3.org/2000/svg">
<rect width="25" height="4" rx="2" fill="#2080D5"/>
<rect y="8" width="25" height="4" rx="2" fill="#2080D5"/>
<rect y="16" width="15" height="4" rx="2" fill="#2080D5"/>
</svg>
