<svg width="8.66" height="16.66" viewBox="0 0 10 18" fill="none" xmlns="http://www.w3.org/2000/svg">
<path d="M7.59997 3.43344H9.16663V0.78344C8.40809 0.704562 7.64593 0.665619 6.8833 0.666773C4.61663 0.666773 3.06663 2.05011 3.06663 4.58344V6.76677H0.508301V9.73344H3.06663V17.3334H6.1333V9.73344H8.6833L9.06663 6.76677H6.1333V4.87511C6.1333 4.00011 6.36663 3.43344 7.59997 3.43344Z" fill="#C8E8F5"/>
</svg>
